# Fdb version 3
["pdflatex"] 1634173247 "/home/leonel/Tareas/TareasLicenciaturaUniversidad/5 Semestre/Seminario de Ingenieria de Software/caso de estudio 1/ieee830.tex" "/home/leonel/Tareas/TareasLicenciaturaUniversidad/5 Semestre/Seminario de Ingenieria de Software/caso de estudio 1/ieee830.pdf" "ieee830" 1634173248
  "/home/leonel/Tareas/TareasLicenciaturaUniversidad//udgLogo.png" 1600385086 67261 2deb50320dbc908ede3ca4ee99bb1bdd ""
  "/home/leonel/Tareas/TareasLicenciaturaUniversidad/5 Semestre/Seminario de Ingenieria de Software/caso de estudio 1/ieee830.aux" 1634173248 5553 3605ff1325f18cdd519bb089be3e5f0c ""
  "/home/leonel/Tareas/TareasLicenciaturaUniversidad/5 Semestre/Seminario de Ingenieria de Software/caso de estudio 1/ieee830.tex" 1634173247 20333 d1ccf65c0b6a9c4180be463018f5dd36 ""
  "/usr/share/texmf-dist/fonts/map/fontname/texfonts.map" 1617738065 3524 cb3e574dea2d1052e39280babc910dc8 ""
  "/usr/share/texmf-dist/fonts/tfm/public/cm/cmbx12.tfm" 1617738065 1324 c910af8c371558dc20f2d7822f66fe64 ""
  "/usr/share/texmf-dist/fonts/tfm/public/cm/cmmi12.tfm" 1617738065 1524 4414a8315f39513458b80dfc63bff03a ""
  "/usr/share/texmf-dist/fonts/tfm/public/cm/cmmi6.tfm" 1617738065 1512 f21f83efb36853c0b70002322c1ab3ad ""
  "/usr/share/texmf-dist/fonts/tfm/public/cm/cmmi8.tfm" 1617738065 1520 eccf95517727cb11801f4f1aee3a21b4 ""
  "/usr/share/texmf-dist/fonts/tfm/public/cm/cmr12.tfm" 1617738065 1288 655e228510b4c2a1abe905c368440826 ""
  "/usr/share/texmf-dist/fonts/tfm/public/cm/cmr17.tfm" 1617738065 1292 296a67155bdbfc32aa9c636f21e91433 ""
  "/usr/share/texmf-dist/fonts/tfm/public/cm/cmr6.tfm" 1617738065 1300 b62933e007d01cfd073f79b963c01526 ""
  "/usr/share/texmf-dist/fonts/tfm/public/cm/cmr8.tfm" 1617738065 1292 21c1c5bfeaebccffdb478fd231a0997d ""
  "/usr/share/texmf-dist/fonts/tfm/public/cm/cmsy10.tfm" 1617738065 1124 6c73e740cf17375f03eec0ee63599741 ""
  "/usr/share/texmf-dist/fonts/tfm/public/cm/cmsy6.tfm" 1617738065 1116 933a60c408fc0a863a92debe84b2d294 ""
  "/usr/share/texmf-dist/fonts/tfm/public/cm/cmsy8.tfm" 1617738065 1120 8b7d695260f3cff42e636090a8002094 ""
  "/usr/share/texmf-dist/fonts/type1/public/amsfonts/cm/cmbx12.pfb" 1617738065 32080 340ef9bf63678554ee606688e7b5339d ""
  "/usr/share/texmf-dist/fonts/type1/public/amsfonts/cm/cmr12.pfb" 1617738065 32722 d7379af29a190c3f453aba36302ff5a9 ""
  "/usr/share/texmf-dist/tex/context/base/mkii/supp-pdf.mkii" 1617738065 71627 94eb9990bed73c364d7f53f960cc8c5b ""
  "/usr/share/texmf-dist/tex/generic/babel-spanish/spanish.ldf" 1617738065 26223 0286ca123141cff8dd4956c4576d2ef4 ""
  "/usr/share/texmf-dist/tex/generic/babel/babel.def" 1617738065 118719 e672239d75d9419ba29850a1b391bd00 ""
  "/usr/share/texmf-dist/tex/generic/babel/babel.sty" 1617738065 37894 44955682e4f134137b9d1033fb86e0ef ""
  "/usr/share/texmf-dist/tex/generic/babel/txtbabel.def" 1617738065 5230 84624d139fa443f96294434bccf82f8c ""
  "/usr/share/texmf-dist/tex/generic/iftex/iftex.sty" 1617738065 6501 4011d89d9621e0b0901138815ba5ff29 ""
  "/usr/share/texmf-dist/tex/generic/iftex/ifvtex.sty" 1617738065 1057 525c2192b5febbd8c1f662c9468335bb ""
  "/usr/share/texmf-dist/tex/latex/base/article.cls" 1617738065 20145 aad8c3dd3bc36e260347b84002182bc2 ""
  "/usr/share/texmf-dist/tex/latex/base/inputenc.sty" 1617738065 5050 0d3b77275060ca09a40635b830c3c904 ""
  "/usr/share/texmf-dist/tex/latex/base/size12.clo" 1617738065 8450 6fd3588c0e9d06f6f56c6cf4f7246466 ""
  "/usr/share/texmf-dist/tex/latex/colortbl/colortbl.sty" 1617738065 10793 d0af3aa11e27ae35ba4685b17597b122 ""
  "/usr/share/texmf-dist/tex/latex/epstopdf-pkg/epstopdf-base.sty" 1617738065 13886 d1306dcf79a944f6988e688c1785f9ce ""
  "/usr/share/texmf-dist/tex/latex/geometry/geometry.sty" 1617738065 41601 9cf6c5257b1bc7af01a58859749dd37a ""
  "/usr/share/texmf-dist/tex/latex/graphics-cfg/color.cfg" 1617738065 1213 620bba36b25224fa9b7e1ccb4ecb76fd ""
  "/usr/share/texmf-dist/tex/latex/graphics-cfg/graphics.cfg" 1617738065 1224 978390e9c2234eab29404bc21b268d1e ""
  "/usr/share/texmf-dist/tex/latex/graphics-def/pdftex.def" 1617738065 19103 48d29b6e2a64cb717117ef65f107b404 ""
  "/usr/share/texmf-dist/tex/latex/graphics/color.sty" 1617738065 7102 5b27b7e61091c6128cd6300e21704e4b ""
  "/usr/share/texmf-dist/tex/latex/graphics/graphics.sty" 1617738065 18272 a8c6a275b34ab6717ceeb8fa04b104e2 ""
  "/usr/share/texmf-dist/tex/latex/graphics/graphicx.sty" 1617738065 7919 20fdfdd783821971c55bc8ee918cbe63 ""
  "/usr/share/texmf-dist/tex/latex/graphics/keyval.sty" 1617738065 2590 e3b24ff953e5b58d924f163d25380312 ""
  "/usr/share/texmf-dist/tex/latex/graphics/trig.sty" 1617738065 3976 d7fa7d81d2870d509d25b17d0245e735 ""
  "/usr/share/texmf-dist/tex/latex/l3backend/l3backend-pdftex.def" 1617738065 27164 3d5f7887a89df4eb2f6e86ba26ef3254 ""
  "/usr/share/texmf-dist/tex/latex/latexconfig/epstopdf-sys.cfg" 1617738065 678 4792914a8f45be57bb98413425e4c7af ""
  "/usr/share/texmf-dist/tex/latex/titlesec/titlesec.sty" 1621766596 48596 2b6a95da931c07a430b1a61904aaa42d ""
  "/usr/share/texmf-dist/tex/latex/tools/array.sty" 1617738065 12675 9a7bbb9e485cd81cdcc1d56212b088ff ""
  "/usr/share/texmf-dist/tex/latex/xcolor/xcolor.sty" 1617738065 55589 34128738f682d033422ca125f82e5d62 ""
  "/usr/share/texmf-dist/web2c/texmf.cnf" 1617738065 39911 2da6c67557ec033436fe5418a70a8a61 ""
  "/var/lib/texmf/fonts/map/pdftex/updmap/pdftex.map" 1621804330 5045527 a0ef06d06af438d62994481e52c2af5f ""
  "/var/lib/texmf/web2c/pdftex/pdflatex.fmt" 1621804322 2812670 cc2ab1b11c3b0ad037ffcf23c481e41d ""
  "ieee830.aux" 1634173248 5553 3605ff1325f18cdd519bb089be3e5f0c "pdflatex"
  "ieee830.tex" 1634173247 20333 d1ccf65c0b6a9c4180be463018f5dd36 ""
  "ieee830.toc" 1634173248 3495 d1001bc52dac828a85ec9b54c599d618 "pdflatex"
  (generated)
  "ieee830.log"
  "/home/leonel/Tareas/TareasLicenciaturaUniversidad/5 Semestre/Seminario de Ingenieria de Software/caso de estudio 1/ieee830.log"
  "ieee830.pdf"
  "/home/leonel/Tareas/TareasLicenciaturaUniversidad/5 Semestre/Seminario de Ingenieria de Software/caso de estudio 1/ieee830.pdf"
  "ieee830.aux"
  "ieee830.toc"
