\relax 
\providecommand\babel@aux[2]{}
\@nameuse{bbl@beforestart}
\catcode `"\active 
\catcode `<\active 
\catcode `>\active 
\@nameuse{es@quoting}
\babel@aux{spanish}{}
\@writefile{toc}{\contentsline {section}{\numberline {1}INTRODUCCION}{2}{}\protected@file@percent }
\@writefile{toc}{\contentsline {subsection}{\numberline {1.1}Proposito}{2}{}\protected@file@percent }
\@writefile{toc}{\contentsline {subsection}{\numberline {1.2}Alcance}{2}{}\protected@file@percent }
\@writefile{toc}{\contentsline {subsection}{\numberline {1.3}Personal Involucrado}{2}{}\protected@file@percent }
\@writefile{toc}{\contentsline {subsection}{\numberline {1.4}Definiciones, acronimos y abreviaturas}{2}{}\protected@file@percent }
\@writefile{toc}{\contentsline {subsection}{\numberline {1.5}Referencias}{2}{}\protected@file@percent }
\@writefile{toc}{\contentsline {subsection}{\numberline {1.6}Resumen}{2}{}\protected@file@percent }
\@writefile{toc}{\contentsline {section}{\numberline {2}DESCRIPCION GENERAL}{3}{}\protected@file@percent }
\@writefile{toc}{\contentsline {subsection}{\numberline {2.1}Perspectiva del producto}{3}{}\protected@file@percent }
\@writefile{toc}{\contentsline {subsection}{\numberline {2.2}Funcionalidad del producto}{3}{}\protected@file@percent }
\@writefile{toc}{\contentsline {subsection}{\numberline {2.3}Caracteristicas de los usuarios}{3}{}\protected@file@percent }
\@writefile{toc}{\contentsline {subsection}{\numberline {2.4}Restricciones}{4}{}\protected@file@percent }
\@writefile{toc}{\contentsline {subsection}{\numberline {2.5}Suposiciones y dependencias}{4}{}\protected@file@percent }
\@writefile{toc}{\contentsline {section}{\numberline {3}REQUISITOS ESPECIFICOS}{4}{}\protected@file@percent }
\@writefile{toc}{\contentsline {subsection}{\numberline {3.1}Requisitos comunes de las interfaces}{4}{}\protected@file@percent }
\@writefile{toc}{\contentsline {subsubsection}{\numberline {3.1.1}Interfaces de usuario}{4}{}\protected@file@percent }
\@writefile{toc}{\contentsline {subsubsection}{\numberline {3.1.2}Interfaces de hardware}{4}{}\protected@file@percent }
\@writefile{toc}{\contentsline {subsubsection}{\numberline {3.1.3}Interfaces de software}{5}{}\protected@file@percent }
\@writefile{toc}{\contentsline {subsubsection}{\numberline {3.1.4}Interfaces de comunicacion}{5}{}\protected@file@percent }
\@writefile{toc}{\contentsline {subsection}{\numberline {3.2}Requerimientos funcionales}{5}{}\protected@file@percent }
\@writefile{toc}{\contentsline {subsubsection}{\numberline {3.2.1}Requisito funcional 1}{5}{}\protected@file@percent }
\@writefile{toc}{\contentsline {subsubsection}{\numberline {3.2.2}Requisito funcional 2}{5}{}\protected@file@percent }
\@writefile{toc}{\contentsline {subsubsection}{\numberline {3.2.3}Requisito funcional 3}{5}{}\protected@file@percent }
\@writefile{toc}{\contentsline {subsubsection}{\numberline {3.2.4}Requisito funcional 4}{6}{}\protected@file@percent }
\@writefile{toc}{\contentsline {subsubsection}{\numberline {3.2.5}Requisito funcional 5}{6}{}\protected@file@percent }
\@writefile{toc}{\contentsline {subsubsection}{\numberline {3.2.6}Requisito funcional 6}{6}{}\protected@file@percent }
\@writefile{toc}{\contentsline {subsubsection}{\numberline {3.2.7}Requisito funcional 7}{7}{}\protected@file@percent }
\@writefile{toc}{\contentsline {subsubsection}{\numberline {3.2.8}Requisito funcional 8}{7}{}\protected@file@percent }
\@writefile{toc}{\contentsline {subsubsection}{\numberline {3.2.9}Requisito funcional 9}{7}{}\protected@file@percent }
\@writefile{toc}{\contentsline {subsubsection}{\numberline {3.2.10}Requisito funcional 10}{7}{}\protected@file@percent }
\@writefile{toc}{\contentsline {subsubsection}{\numberline {3.2.11}Requisito funcional 11}{8}{}\protected@file@percent }
\@writefile{toc}{\contentsline {subsubsection}{\numberline {3.2.12}Requisito funcional 12}{8}{}\protected@file@percent }
\@writefile{toc}{\contentsline {subsection}{\numberline {3.3}Requerimientos no funcionales}{8}{}\protected@file@percent }
\@writefile{toc}{\contentsline {subsubsection}{\numberline {3.3.1}Requisitos de rendimiento}{8}{}\protected@file@percent }
\@writefile{toc}{\contentsline {paragraph}{\numberline {3.3.1.1}Requisito no funcional 1}{8}{}\protected@file@percent }
\@writefile{toc}{\contentsline {subsubsection}{\numberline {3.3.2}Seguridad}{9}{}\protected@file@percent }
\@writefile{toc}{\contentsline {paragraph}{\numberline {3.3.2.1}Requisito no funcional 2}{9}{}\protected@file@percent }
\@writefile{toc}{\contentsline {paragraph}{\numberline {3.3.2.2}Requisito no funcional 3}{9}{}\protected@file@percent }
\@writefile{toc}{\contentsline {subsubsection}{\numberline {3.3.3}Fiabilidad}{9}{}\protected@file@percent }
\@writefile{toc}{\contentsline {paragraph}{\numberline {3.3.3.1}Requisito no funcional 4}{9}{}\protected@file@percent }
\@writefile{toc}{\contentsline {subsubsection}{\numberline {3.3.4}Disponibilidad}{10}{}\protected@file@percent }
\@writefile{toc}{\contentsline {paragraph}{\numberline {3.3.4.1}Requisito no funcional 5}{10}{}\protected@file@percent }
\@writefile{toc}{\contentsline {subsubsection}{\numberline {3.3.5}Mantenibilidad}{10}{}\protected@file@percent }
\@writefile{toc}{\contentsline {paragraph}{\numberline {3.3.5.1}Requisito no funcional 6}{10}{}\protected@file@percent }
\@writefile{toc}{\contentsline {subsubsection}{\numberline {3.3.6}Portabilidad}{10}{}\protected@file@percent }
\@writefile{toc}{\contentsline {paragraph}{\numberline {3.3.6.1}Requisito no funcional 7}{10}{}\protected@file@percent }
\gdef \@abspage@last{11}
